…
These are just a few examples to help you jump right in. See the package articles for more.

### STAPI

Use the Star Trek API (STAPI) to obtain information on the infamous character, Q. Specifically, retrieve data on his appearances and the stardates when he shows up. The first API call does a lightweight, unobtrusive check to see how many pages of potential search results exist for characters in the database. There are a lot of characters. The second call grabs only page two results. The third call uses the universal/unique ID `uid` to retrieve data on Q. Think of these three successive uses of `stapi` as safe mode, search mode and extraction mode.

``` r
library(rtrek)
library(dplyr)
stapi("character", page_count = TRUE)
#> Total pages to retrieve all results: 64

stapi("character", page = 2)
#> # A tibble: 100 x 24
#>    uid   name  gender yearOfBirth monthOfBirth dayOfBirth placeOfBirth
#>    <chr> <chr> <chr>        <int> <lgl>        <lgl>      <chr>       
#>  1 CHMA~ Stev~ <NA>            NA NA           NA         <NA>        
#>  2 CHMA~ Yegg~ M               NA NA           NA         <NA>        
#>  3 CHMA~ Arex  M               NA NA           NA         <NA>        
#>  4 CHMA~ Jose~ M               NA NA           NA         <NA>        
#>  5 CHMA~ J. Z~ <NA>            NA NA           NA         <NA>        
#>  6 CHMA~ Doyle M               NA NA           NA         <NA>        
#>  7 CHMA~ Butl~ M               NA NA           NA         <NA>        
#>  8 CHMA~ Lito  M               NA NA           NA         <NA>        
#>  9 CHMA~ B. M~ <NA>            NA NA           NA         <NA>        
#> 10 CHMA~ Anna~ <NA>            NA NA           NA         <NA>        
#> # ... with 90 more rows, and 17 more variables: yearOfDeath <int>,
#> #   monthOfDeath <lgl>, dayOfDeath <lgl>, placeOfDeath <lgl>,
#> #   height <int>, weight <int>, deceased <lgl>, bloodType <lgl>,
#> #   maritalStatus <chr>, serialNumber <chr>, hologramActivationDate <lgl>,
#> #   hologramStatus <lgl>, hologramDateStatus <lgl>, hologram <lgl>,
#> #   fictionalCharacter <lgl>, mirror <lgl>, alternateReality <lgl>
…
