…
Time to be good detectives. Good thing Data has R installed.

These are just a few examples to help you jump right in. See the package articles for more.

STAPI

Use the Star Trek API (STAPI) to obtain information on the infamous character, Q. Specifically, retrieve data on his appearances and the stardates when he shows up. The first API call does a lightweight, unobtrusive check to see how many pages of potential search results exist for characters in the database. There are a lot of characters. The second call grabs only page two results. The third call uses the universal/unique ID uid to retrieve data on Q. Think of these three successive uses of stapi as safe mode, search mode and extraction mode.

library(rtrek)
library(dplyr)
stapi("character", page_count = TRUE)
#> Total pages to retrieve all results: 66

stapi("character", page = 1) %>% select(uid, name)
#> # A tibble: 100 x 2
#>    uid            name            
#>    <chr>          <chr>           
#>  1 CHMA0000021696 Pechetti        
#>  2 CHMA0000028502 Pomet           
#>  3 CHMA0000134966 Eddie Newsom    
#>  4 CHMA0000101321 T. Virts        
#>  5 CHMA0000053158 Annabelle series
#>  6 CHMA0000008975 Torias Dax      
#>  7 CHMA0000232471 T. Peel         
#>  8 CHMA0000087568 Grathon Tolar   
#>  9 CHMA0000190805 C. Russell      
#> 10 CHMA0000069617 Mike Vejar      
#> # ... with 90 more rows
…
