Data Analysis Relating to Star Trek • rtrek
…
STAPI

Use the Star Trek API (STAPI) to obtain information on the infamous character, Q. Specifically, retrieve data on his appearances and the stardates when he shows up.

The first API call does a lightweight, unobtrusive check to see how many pages of potential search results exist for characters in the database. There are a lot of characters.

The second call grabs only page two results. The third call uses the universal/unique ID uid to retrieve data on Q. Think of these three successive uses of stapi() as safe mode, search mode and extraction mode.

library(rtrek)
library(dplyr)
stapi("character", page_count = TRUE)
#> Total pages to retrieve all results: 76

stapi("character", page = 1) |> select(uid, name)
#> # A tibble: 100 × 2
#>    uid            name         
#>    <chr>          <chr>        
#>  1 CHMA0000215045 0413 Theta   
#>  2 CHMA0000174718 0718         
#>  3 CHMA0000283851 10111        
#>  4 CHMA0000278055 335          
#>  5 CHMA0000282741 355          
#>  6 CHMA0000026532 A'trom       
#>  7 CHMA0000280385 A. Armaganian
#>  8 CHMA0000226457 A. Baiers    
#>  9 CHMA0000232390 A. Baiers    
#> 10 CHMA0000068580 A. Banda     
#> # ℹ 90 more rows
…
