Episode analysis • rtrek
…
Importing transcript data

A curated data frame of metadata and text variables derived from
episode and movie transcripts can be downloaded with
st_transcripts. The format is one episode per row. There
are metadata columns and a list column of nested text variables.

library(dplyr)
library(tidyr)
library(ggplot2)
library(ggrepel)

(scriptData <- st_transcripts())
#> # A tibble: 726 × 10
#>    format  series season number title    production airdate url   url2  text    
#>    <chr>   <chr>   <int>  <int> <chr>         <int> <chr>   <chr> <chr> <list>  
#>  1 episode TOS         1      0 The Cage          1 NA      http… http… <tibble>
#>  2 episode TOS         1      1 The Man…          6 1966-0… http… http… <tibble>
#>  3 episode TOS         1      2 Charlie…          8 1966-0… http… http… <tibble>
#>  4 episode TOS         1      3 Where N…          2 1966-0… http… http… <tibble>
#>  5 episode TOS         1      4 The Nak…          7 1966-0… http… http… <tibble>
#>  6 episode TOS         1      5 The Ene…          5 1966-1… http… http… <tibble>
#>  7 episode TOS         1      6 Mudd's …          4 1966-1… http… http… <tibble>
#>  8 episode TOS         1      7 What ar…         10 1966-1… http… http… <tibble>
#>  9 episode TOS         1      8 Miri             12 1966-1… http… http… <tibble>
#> 10 episode TOS         1      9 Dagger …         11 1966-1… http… http… <tibble>
#> # ℹ 716 more rows

scriptData$text[[81]]
#> # A tibble: 816 × 6
#>    line_number perspective                   setting description character line 
#>          <int> <chr>                         <chr>   <chr>       <chr>     <chr>
#>  1          NA NA                            "Fade … NA          NA        NA   
#>  2           1 Ext. Space - starship (optic… "The u… NA          Picard V… Capt…
#>  3           2 Other introductory angles (o… "On th… NA          Picard V… My o…
#>  4           3 Int. Engine room              "Huge,… Continuing  Picard V… ... …
#>  5           4 Closer on vessel diagram      "Showi… NA          Picard V… I am…
#>  6          NA Int. Lounge deck              "With … NA          NA        NA   
#>  7           5 Continued                      NA     Continuing  Picard V… ... …
#>  8           6 Int. Bridge - wide angle      "Picar… Continuing  Picard V… ... …
#>  9           7 Angle emphasizing picard and… "As pi… NA          Picard    You …
#> 10           8 Angle emphasizing picard and…  NA     NA          Data      Diff…
#> # ℹ 806 more rows
…
Also remove unneeded columns. As is common in text analysis, even a
clean dataset may need further preparation for a specific task. In this
case it is important to strip references to things such as voice over
(V.o.) from the character column.

pat <- "('s\\s|\\s\\(|\\sV\\.).*"
x <- filter(scriptData, format == "episode" & series == "TNG") %>% 
  unnest(text) %>%
  select(season, title, character, line) %>%
  mutate(character = gsub(pat, "", character)) %>%
  group_by(season, title, character) %>%
  summarize(lines = n(), words = length(unlist(strsplit(line, " "))))

x
#> # A tibble: 2,858 × 5
#> # Groups:   season, title [176]
#>    season title    character        lines words
#>     <int> <chr>    <chr>            <int> <int>
#>  1      1 11001001 Ad Libbed Voices     1    14
#>  2      1 11001001 Bass                 4    16
#>  3      1 11001001 Beverly              7   169
#>  4      1 11001001 Bynar One Zero       1     5
#>  5      1 11001001 Bynar Zero One       1     9
#>  6      1 11001001 Computer            11    96
#>  7      1 11001001 Computer Voice      14   129
#>  8      1 11001001 Data                31   361
#>  9      1 11001001 Drummer              2    22
#> 10      1 11001001 Geordi              23   166
#> # ℹ 2,848 more rows
…
Prominent roles

What is each character’s biggest episode per season in terms of
estimated spoken words?

biggest <- filter(x, character %in% id) %>% 
  mutate(character = factor(character, levels = id)) %>%
  group_by(season, character) %>%
  summarize(title = title[which.max(words)], words = max(words)) %>%
  arrange(character)

biggest
#> # A tibble: 55 × 4
#> # Groups:   season [7]
#>    season character title                 words
#>     <int> <fct>     <chr>                 <int>
#>  1      1 Picard    Encounter at Farpoint  2575
#>  2      2 Picard    The Measure of a Man   1844
#>  3      3 Picard    The Survivors          1738
#>  4      4 Picard    Devil's Due            2095
#>  5      5 Picard    Ensign Ro              1897
#>  6      6 Picard    The Chase              2083
#>  7      7 Picard    All Good Things...     4019
#>  8      1 Data      Datalore                944
#>  9      2 Data      The Schizoid Man       1592
#> 10      3 Data      The Offspring          1886
#> # ℹ 45 more rows
…
