Word counts • rtrek
…
library(dplyr)
library(lubridate)
library(ggplot2)
library(ggrepel)
library(gridExtra)
library(rtrek) # use >= v0.2.1 for more accurate word count data

Look for trends in word count through time for select series: The Next Generation, Deep Space Nine, and Voyager. Mutating the date and nword columns facilitates a better plot. Retain outliers in general, but drop any titles containing the word “Omnibus” because these are known to be larger books containing multiple individual novels. Inspect the data.

keep_series <- c("TNG", "DS9", "VOY")
x <- mutate(stBooks, date = decimal_date(as.Date(date)), nword = nword / 1000) %>% 
  filter(series %in% keep_series & !grepl("Omnibus", title))

arrange(x, nword)
#> # A tibble: 266 x 11
#>    title   author  date publisher identifier series subseries nchap nword  nchar
#>    <chr>   <chr>  <dbl> <chr>     <chr>      <chr>  <chr>     <int> <dbl>  <int>
#>  1 Slings~ Terri~ 2008. Simon an~ 1416550240 TNG    <NA>          8  10.7  63356
#>  2 Slings~ Keith~ 2008. Simon an~ 978141655~ TNG    <NA>         11  18.9 112768
#>  3 First ~ John ~ 1997. Pocket B~ 978074345~ TNG    <NA>         13  23.6 137531
#>  4 Slings~ Willi~ 2008. Simon an~ 1416550224 TNG    <NA>          8  23.8 140719
#>  5 Typhon~ Chris~ 2012. Gallery ~ 978145165~ TNG    Typhon P~    14  25.3 149530
#>  6 Lust's~ Paula~ 2015. Pocket B~ 978147677~ DS9    <NA>         16  25.5 188622
#>  7 Slings~ Rober~ 2008. Simon an~ 978141655~ TNG    <NA>          7  25.8 153414
#>  8 Q are ~ Rudy ~ 2015. Pocket B~ 978147677~ TNG    <NA>         10  27.2 192705
#>  9 Slings~ J. St~ 2008. Pocket B~ 978141655~ TNG    <NA>         12  27.6 159115
#> 10 The St~ James~ 2013. Pocket B~ 978145169~ TNG    <NA>          5  29.2 212328
#> # ... with 256 more rows, and 1 more variable: dedication <chr>
…
There is about a 40% increase in average word count per novel across the three series from the the first TNG novel in 1987 through 2017. In the case of the Voyager novels, however, the average word count approximately doubles and does so over a short production run. It is worth noting that as word count has trended upward noticeably, novels from these series have also been published less frequently. If you have read many of these book in paperback form, both the oldest and the more recent ones, this should not be a surprising result. Many of the newer releases have notably more pages and smaller font than the novels from the earlier years.

In this next example, consider all books from all series available in stBooks, with the exception of Omnibus editions and those falling into the reference category. This example looks at cumulative total word count over time for all the selected books. For plot labeling purposes, this time divide the word count by one million.

x <- mutate(stBooks, date = decimal_date(as.Date(date)), nword = nword / 1e6) %>% 
  filter(series != "REF" & !grepl("Omnibus", title)) %>% 
  arrange(date) %>% 
  mutate(total_words = cumsum(nword))

x
#> # A tibble: 732 x 12
#>    title  author  date publisher identifier series subseries nchap  nword  nchar
#>    <chr>  <chr>  <dbl> <chr>     <chr>      <chr>  <chr>     <int>  <dbl>  <int>
#>  1 Banta~ James~ 1967  Amereon ~ 978084880~ TOS    <NA>         NA 0.0411 235524
#>  2 Banta~ James~ 1968. Amereon ~ 978084880~ TOS    <NA>         NA 0.0405 232094
#>  3 Banta~ James~ 1969. Bantam B~ 978055312~ TOS    <NA>         NA 0.0389 224369
#>  4 Banta~ James~ 1970. Bantam B~ 978055310~ TOS    <NA>          9 0.0361 207001
#>  5 Banta~ James~ 1971. Bantam B~ 978055312~ TOS    <NA>         NA 0.0416 239859
#>  6 Banta~ James~ 1972. Bantam B~ 978055314~ TOS    <NA>         NA 0.0430 247985
#>  7 Banta~ James~ 1972. Bantam B~ 978055313~ TOS    <NA>         NA 0.0428 248923
#>  8 Banta~ James~ 1972. Bantam B~ 978055313~ TOS    <NA>         NA 0.0464 268309
#>  9 Banta~ James~ 1973. Bantam B~ 978055312~ TOS    <NA>         NA 0.0533 307648
#> 10 Banta~ James~ 1974. Bantam B~ 978055312~ TOS    <NA>         NA 0.0533 314575
#> # ... with 722 more rows, and 2 more variables: dedication <chr>,
#> #   total_words <dbl>
…
