Memory Alpha • rtrek
…
The data frame returned provides each portal ID and respective “short URL”. These relative URLs are given in order to reduce verbosity and redundancy. All absolute URLs begin with https://memory-alpha.fandom.com/wiki/.

In this special case where endpoint = "portals", this table is returned from the package itself because it is already known. The available portals are fixed. There is no accessing of Memory Alpha yet. The URLs shown are also not needed by the user, but are provided alongside the IDs for context.

Using a portal

When using a specific portal at the highest level (portal ID only), the returned data frame contains information about searchable categories available in the portal.

memory_alpha("people")
#> # A tibble: 102 x 3
#>    id          url                  group     
#>    <chr>       <chr>                <chr>     
#>  1 Acamarians  Category:Acamarians  By species
#>  2 Akritirians Category:Akritirians By species
#>  3 Aldeans     Category:Aldeans     By species
#>  4 Andorians   Category:Andorians   By species
#>  5 Androids    Category:Androids    By species
#>  6 Aquans      Category:Aquans      By species
#>  7 Ardanans    Category:Ardanans    By species
#>  8 Augments    Category:Augments    By species
#>  9 Ba'ku       Category:Ba%27ku     By species
#> 10 Bajorans    Category:Bajorans    By species
#> # ... with 92 more rows

Again, there are id and url columns. There is also a group (and potentially a subgroup) column. This is only to provide meaningful context for the values in the id column if relevant for a given portal; group is not used for anything and the user can ignore it.

The above call does involve reaching out to Memory Alpha. While the portals are stable, it is expected that content within is regularly updated. Remember that this is not a real API. Since one is not available, what is really going on behind the scenes is the use of xml2 and rvest for web page harvesting.

Some portals have terminal endpoints - in Memory Alpha these are the written articles - at the top level, but typically the top level results for a portal are categories. You can always differentiate categories from articles by the URL, which will begin with Category: in the former case.

Descending through subcategories is done by appending their id values, separated by a forward slash /.

memory_alpha("people/Klingons")
#> # A tibble: 222 x 2
#>    Klingons                       url                                    
#>    <chr>                          <chr>                                  
#>  1 Memory Alpha images (Klingons) Category:Memory_Alpha_images_(Klingons)
#>  2 Amar (Klingon)                 Amar_(Klingon)                         
#>  3 Antaak                         Antaak                                 
#>  4 A'trom                         A%27trom                               
#>  5 Atul                           Atul                                   
#>  6 Augments                       Category:Augments                      
#>  7 Azetbur                        Azetbur                                
#>  8 Ba'el                          Ba%27el                                
#>  9 Ba'ktor                        Ba%27ktor                              
#> 10 Barak-Kadan                    Barak-Kadan                            
#> # ... with 212 more rows
…
If browse = TRUE the article page also launches in the browser.

Images

Full resolution source images can be downloaded and imported into R using ma_image if you know the short URL. The easiest way to find URLs is by using a Memory Alpha portal. In the example below, the Memory Alpha images category under Klingons is selected. Look for a picture that includes Worf but also Data.

library(dplyr)
klingons <- memory_alpha("people/Klingons/Memory Alpha images (Klingons)")
klingons
#> # A tibble: 1,254 x 2
#>    `Memory Alpha images (Klingons)`     url                                     
#>    <chr>                                <chr>                                   
#>  1 Memory Alpha images (Klingon hologr~ Category:Memory_Alpha_images_(Klingon_h~
#>  2 23rd century Klingons.jpg            File:23rd_century_Klingons.jpg          
#>  3 A good day to die, 2366.jpg          File:A_good_day_to_die,_2366.jpg        
#>  4 Age of ascension pain sticks.jpg     File:Age_of_ascension_pain_sticks.jpg   
#>  5 Ajilon Prime Klingon 1.jpg           File:Ajilon_Prime_Klingon_1.jpg         
#>  6 Ajilon Prime Klingon 2.jpg           File:Ajilon_Prime_Klingon_2.jpg         
#>  7 Ajilon Prime Klingons.jpg            File:Ajilon_Prime_Klingons.jpg          
#>  8 Alexander and K'mtar.jpg             File:Alexander_and_K%27mtar.jpg         
#>  9 Alexander at the kot'baval festival~ File:Alexander_at_the_kot%27baval_festi~
#> 10 Alexander Rozhenko, 2367.jpg         File:Alexander_Rozhenko,_2367.jpg       
#> # ... with 1,244 more rows
…
ma_image can take the additional arguments, keep = TRUE to retain the downloaded image file, and file to specify the output filename if you do not want it to be derived from the short URL. If you need more control over the plot, set keep = TRUE and then load the image file into R directly to plot separately as needed.

Search

You can perform a Memory Alpha site search using ma_search. This returns a data frame of search results content, including title, truncated text preview, and short URL for the first page of search results.

It does not recursively collate search results through subsequent pages of results. There could be an unexpectedly high number of pages of results depending on the search query. Since the general nature of this search feature seems relatively casual anyway, it aims only to provide a first page preview. As with ma_article, setting browse = TRUE opens the page in the browser.

ma_search("Guinan")
#> # A tibble: 25 x 3
#>    title            text                            url                         
#>    <chr>            <chr>                           <chr>                       
#>  1 Guinan           "For the actor, please see Fra~ https://memory-alpha.fandom~
#>  2 Francis Guinan   "spin-off television series. H~ https://memory-alpha.fandom~
#>  3 Unnamed individ~ "List of unnamed individuals o~ https://memory-alpha.fandom~
#>  4 Unnamed El-Auri~ "The following is a list of un~ https://memory-alpha.fandom~
#>  5 Starfleet        "Multiple realities(covers inf~ https://memory-alpha.fandom~
#>  6 Jean-Luc Picard  "Multiple realities(covers inf~ https://memory-alpha.fandom~
#>  7 Alexander Rozhe~ "Multiple realities(covers inf~ https://memory-alpha.fandom~
#>  8 Data             "Multiple realities(covers inf~ https://memory-alpha.fandom~
#>  9 Worf             "Multiple realities(covers inf~ https://memory-alpha.fandom~
#> 10 William T. Riker "Multiple realities(covers inf~ https://memory-alpha.fandom~
#> # ... with 15 more rows
…
