Memory Beta • rtrek
…
In this special case where endpoint = "portals", this table is returned from the package itself because it is already known. The available portals are fixed. There is no accessing of Memory Beta yet. The URLs shown are also not needed by the user, but are provided alongside the IDs for context.

Contrast with Memory Alpha

In contrast to the results of memory_alpha("portals"), notice that each url entry begins with Category: rather than Portal. The Memory Beta website does not explicitly offer “portals” like the Memory Alpha site. For consistency from the perspective of rtrek, several top-level categories at Memory Beta are treated as portals. The timeline portal is a special case. It is a shorthand for the timeline subcategory at culture/history/timeline.

Memory Beta is structured very similarly to Memory alpha, but also more consistently. The structural differences in content returned across some portals accessed by memory_alpha are not seen when obtaining data with memory_beta. This can make working with Memory Beta data a smoother experience.

Using a portal

When using a specific portal at the highest level (portal ID only), the returned data frame contains information about searchable categories available in the portal.

memory_beta("characters")
#> # A tibble: 34 x 2
#>    characters                      url                                     
#>    <chr>                           <chr>                                   
#>  1 Biography                       Category:Biography                      
#>  2 Memory Beta images (characters) Category:Memory_Beta_images_(characters)
#>  3 Artificial beings               Category:Artificial_beings              
#>  4 Barbara Kesel                   Barbara_Kesel                           
#>  5 Characters (alternate reality)  Category:Characters_(alternate_reality) 
#>  6 Characters (alternates)         Category:Characters_(alternates)        
#>  7 Characters by planet            Category:Characters_by_planet           
#>  8 Charteris                       Charteris                               
#>  9 Crossover characters            Category:Crossover_characters           
#> 10 Deep Space 9 residents          Category:Deep_Space_9_residents         
#> # ... with 24 more rows

Again, there are id and url columns. Unlike with high-level memory_alpha results, there are no group or subgroup columns. These are not applicable given the simpler structure and more consistent content structure of category and article pages at Memory Beta.

The above call does involve reaching out to Memory Beta. While the portals are stable, it is expected that content within is regularly updated. Remember that this is not a real API. Since one is not available, what is really going on behind the scenes is the use of xml2 and rvest for web page harvesting.

Some portals have terminal endpoints - in Memory Beta these are the written articles - at the top level, but typically the top level results for a portal are categories. You can always differentiate categories from articles by the URL, which will begin with Category: in the former case.

Descending through subcategories is done by appending their id values, separated by a forward slash /. Notice that compared to Memory Alpha, classification and resulting hierarchical organization can be more detailed for similar content.

x <- "characters/Characters by races and cultures/Klingonoids/Klingons"
memory_beta(x)
#> # A tibble: 1,118 x 2
#>    Klingons                         url                               
#>    <chr>                            <chr>                             
#>  1 Klingon                          Klingon                           
#>  2 Klingon (mirror)                 Klingon_(mirror)                  
#>  3 Kring's battle cruiser personnel Kring%27s_battle_cruiser_personnel
#>  4 Unnamed Klingons                 Unnamed_Klingons                  
#>  5 Aakan                            Aakan                             
#>  6 Aak'Torr                         Aak%27Torr                        
#>  7 Abbakh                           Abbakh                            
#>  8 Adon, son of Gorath              Adon,_son_of_Gorath               
#>  9 Adrokos                          Adrokos                           
#> 10 Aek-Nor                          Aek-Nor                           
#> # ... with 1,108 more rows
…
If browse = TRUE the article page also launches in the browser.

Images

Full resolution source images can be downloaded and imported into R using mb_image if you know the short URL. The easiest way to find URLs is by using a Memory Beta portal. In the example below, the Memory Beta images category under Klingons is selected.

The same example used in the Memory Alpha vignette cannot be duplicated here. Memory Beta does not contain as many images from the television series or movies as Memory Alpha. This is because Memory Beta focuses on licensed works in general and does not need to duplicate everything that is already documented at Memory Alpha.

This time, look for a picture that includes Worf but also K’Ehleyr.

library(dplyr)
x <- "characters/Memory Beta images (characters)/Memory Beta images (Worf)"
worf <- memory_beta(x)
worf
#> # A tibble: 74 x 2
#>    `Memory Beta images (Worf)` url                           
#>    <chr>                       <chr>                         
#>  1 Akvoh.jpg                   File:Akvoh.jpg                
#>  2 Allanor.jpg                 File:Allanor.jpg              
#>  3 Apocalypse Rising.jpg       File:Apocalypse_Rising.jpg    
#>  4 Areen and Worf.jpg          File:Areen_and_Worf.jpg       
#>  5 Barassociation.jpg          File:Barassociation.jpg       
#>  6 Bodai ShinC.jpg             File:Bodai_ShinC.jpg          
#>  7 Chancellor Martok.jpg       File:Chancellor_Martok.jpg    
#>  8 Clues.jpg                   File:Clues.jpg                
#>  9 CogenV.jpg                  File:CogenV.jpg               
#> 10 Commander worf Marvel.jpg   File:Commander_worf_Marvel.jpg
#> # ... with 64 more rows
…
x <- mb_article("File:WorfKehleyr.jpg")
x
#> # A tibble: 1 x 4
#>   title             content    metadata categories       
#>   <chr>             <list>     <list>   <list>           
#> 1 Worf, son of Mogh <xml_ndst> <NULL>   <tibble [48 x 2]>

x$categories
#> [[1]]
#> # A tibble: 48 x 2
#>    categories                            url                                    
#>    <chr>                                 <chr>                                  
#>  1 Memory Beta good articles             Category:Memory_Beta_good_articles     
#>  2 Memory Beta articles sourced from no~ Category:Memory_Beta_articles_sourced_~
#>  3 Memory Beta articles sourced from co~ Category:Memory_Beta_articles_sourced_~
#>  4 Memory Beta articles sourced from ep~ Category:Memory_Beta_articles_sourced_~
#>  5 Memory Beta articles sourced from vi~ Category:Memory_Beta_articles_sourced_~
#>  6 Memory Beta articles sourced from ga~ Category:Memory_Beta_articles_sourced_~
#>  7 Memory Beta articles sourced from sh~ Category:Memory_Beta_articles_sourced_~
#>  8 Memory Beta articles sourced from RP~ Category:Memory_Beta_articles_sourced_~
#>  9 Memory Beta articles sourced from no~ Category:Memory_Beta_articles_sourced_~
#> 10 Memory Beta articles sourced from re~ Category:Memory_Beta_articles_sourced_~
#> # ... with 38 more rows
…
This function is also memoized, meaning its results are cached in memory for each specific call. This prevents wastefully making an identical call twice in the same R session. If you do, the cached result is returned instantly. You will not see the progress printed to the console because the function is not actually called again.

When passing integer years to mb_timeline this is the only case where the argument can be a vector. All other options are scalar, including decade. You cannot request multiple decades with c("2360s", "2370s"). If this is what you want, use mb_timeline(2360:2379).

The year (or other period for past and future) is printed to the console as mb_timeline progresses through timeline data for each time step. Set details = FALSE to suppress this.

Search

You can perform a Memory Beta site search using mb_search. This returns a data frame of search results content, including title, truncated text preview, and short URL for the first page of search results.

It does not recursively collate search results through subsequent pages of results. There could be an unexpectedly high number of pages of results depending on the search query. Since the general nature of this search feature seems relatively casual anyway, it aims only to provide a first page preview. As with mb_article, setting browse = TRUE opens the page in the browser.

mb_search("Guinan")
#> # A tibble: 25 x 3
#>    title           text                             url                         
#>    <chr>           <chr>                            <chr>                       
#>  1 Guinan          Guinan is a member of the El-Au~ https://memory-beta.fandom.~
#>  2 Guinan (mirror) universe, Guinan was a member o~ https://memory-beta.fandom.~
#>  3 James T. Kirk   James Tiberius Kirk was a male ~ https://memory-beta.fandom.~
#>  4 Jean-Luc Picard Jean-Luc Picard was a 24th cent~ https://memory-beta.fandom.~
#>  5 Q               Spoiler warning: Plot and/or en~ https://memory-beta.fandom.~
#>  6 Star Trek: The~ Star Trek: The Next Generation ~ https://memory-beta.fandom.~
#>  7 Nog             Nog was a Ferengi man born on t~ https://memory-beta.fandom.~
#>  8 Montgomery Sco~ Montgomery Christopher Jorgense~ https://memory-beta.fandom.~
#>  9 USS Enterprise~ The USS Enterprise (NCC-1701-D)~ https://memory-beta.fandom.~
#> 10 USS Challenger~ The USS Challenger (NCC-71099) ~ https://memory-beta.fandom.~
#> # ... with 15 more rows
…
