Introduction to rtrek • rtrek
…
Star Trek novels

The stBooksWP dataset provides a moderately curated data frame of over 715 Star Trek books published since the early days of the Original Series episode adaptations by James Blish up through the latest novels as of the most recent rtrek update. stBooksWP is not an exhaustive account, but it is sufficiently comprehensive, containing most published books listed on Wikipedia. Those not listed were those more difficult to web scrape such as small anthologies listed in footnotes rather than in table form online.

stBooksWP
#> # A tibble: 715 x 6
#>    Series                   Title    Author   Number Timeframe Released   
#>    <chr>                    <chr>    <chr>     <int> <chr>     <chr>      
#>  1 The_Original_Series - B~ Star Tr~ James B~     NA <NA>      1967-01-01~
#>  2 The_Original_Series - B~ Star Tr~ James B~     NA <NA>      1968-02-01~
#>  3 The_Original_Series - B~ Star Tr~ James B~     NA <NA>      1969-04-01~
#>  4 The_Original_Series - B~ Star Tr~ James B~     NA <NA>      1971-07-01~
#>  5 The_Original_Series - B~ Star Tr~ James B~     NA <NA>      1972-02-01~
#>  6 The_Original_Series - B~ Star Tr~ James B~     NA <NA>      1972-04-01~
#>  7 The_Original_Series - B~ Star Tr~ James B~     NA <NA>      1972-07-01~
#>  8 The_Original_Series - B~ Star Tr~ James B~     NA <NA>      1972-11-01~
#>  9 The_Original_Series - B~ Star Tr~ James B~     NA <NA>      1973-08-01~
#> 10 The_Original_Series - B~ Star Tr~ James B~     NA <NA>      1974-02-01~
#> # ... with 705 more rows
…
Star Trek API

To use the words of the developers, the STAPI is

the first public Star Trek API, accessible via REST and SOAP. It’s an open source project, that anyone can contribute to.

The API is highly functional. Please do not abuse the API with constant requests. Their pages suggest no more than one request per second, but I would suggest ten seconds between successive requests. The default anti-DDOS measures in rtrek limit requests to one per second. You can update this global rtrek setting with options, e.g. options(rtrek_antiddos = 10) for a minimum ten second wait between API calls to be an even better neighbor. rtrek will not permit faster requests. If set below one second, the option is ignored and a warning thrown when making any API call.

STAPI entities

There a many fields, or entities, available in the API. The available IDs can be found in this table:

stapiEntities
#> # A tibble: 40 x 4
#>    id                 class   ncol colnames  
#>    <chr>              <chr>  <int> <list>    
#>  1 animal             tbl_df     7 <chr [7]> 
#>  2 astronomicalObject tbl_df     5 <chr [5]> 
#>  3 book               tbl_df    24 <chr [24]>
#>  4 bookCollection     tbl_df    10 <chr [10]>
#>  5 bookSeries         tbl_df    11 <chr [11]>
#>  6 character          tbl_df    24 <chr [24]>
#>  7 comicCollection    tbl_df    14 <chr [14]>
#>  8 comics             tbl_df    15 <chr [15]>
#>  9 comicSeries        tbl_df    15 <chr [15]>
#> 10 comicStrip         tbl_df    12 <chr [12]>
#> # ... with 30 more rows
…
If satellite data is needed on a unique observation in the search results, call stapi one more time referencing the specific observation.

To determine how many pages of results exist for a given search, set page_count = TRUE. The impact on the API will be equivalent to only searching a single page of results. One page contains metadata including the total number of pages. Nothing is returned in this “safe mode”, but the total number of search results available is printed to the console.

Searching movies only returns one page of results. However, there are a lot of characters in the Star Trek universe. Check the total pages available for character search.

stapi("character", page_count = TRUE)
#> Total pages to retrieve all results: 62

And that is with 100 results per page!

The default page = 1 only returns the first page. page can be a vector, e.g. page = 1:62. Results from multi-page searches are automatically combined into a single, constant data frame output. For the second call to stapi, return only page two here, which contains the character, Q (currently, pending future character database updates that may shift the indexing). In case that does change and Q is not always near the top of page two of the search results, the example further below hard-codes his unique/universal ID.

stapi("character", page = 2)
#> # A tibble: 100 x 24
#>    uid     name    gender yearOfBirth monthOfBirth dayOfBirth placeOfBirth
#>    <chr>   <chr>   <chr>        <int>        <int>      <int> <lgl>       
#>  1 CHMA00~ Fuller  M               NA           NA         NA NA          
#>  2 CHMA00~ Burkus  M               NA           NA         NA NA          
#>  3 CHMA00~ Masaka~ <NA>            NA           NA         NA NA          
#>  4 CHMA00~ Thorne  M               NA           NA         NA NA          
#>  5 CHMA00~ Ah-Kel  M               NA           NA         NA NA          
#>  6 CHMA00~ Robert~ <NA>            NA           NA         NA NA          
#>  7 CHMA00~ Q       M               NA           NA         NA NA          
#>  8 CHMA00~ John D~ <NA>            NA           NA         NA NA          
#>  9 CHMA00~ Louis ~ <NA>            NA           NA         NA NA          
#> 10 CHMA00~ Marat ~ M               NA           NA         NA NA          
#> # ... with 90 more rows, and 17 more variables: yearOfDeath <int>,
#> #   monthOfDeath <lgl>, dayOfDeath <lgl>, placeOfDeath <lgl>,
#> #   height <int>, weight <int>, deceased <lgl>, bloodType <chr>,
#> #   maritalStatus <chr>, serialNumber <chr>, hologramActivationDate <chr>,
#> #   hologramStatus <chr>, hologramDateStatus <lgl>, hologram <lgl>,
#> #   fictionalCharacter <lgl>, mirror <lgl>, alternateReality <lgl>
…
The data returned on Q is actually a large list, including multiple data frames. For simplicity only a piece of it is shown above.

Star Trek novel text mining

This section will be continued in a future version of rtrek. For now what is available is a dataset stBooks that compliments the stBooksWP dataset seen earlier. stBooks has a similar number of metadata entries for Star Trek books and there is considerable overlap between the two datasets. However, there are also considerable differences in entries as well as formatting.

This dataset represents metadata parsed, imperfectly but painstakingly thoroughly, from actual Star Trek books. Compared to stBooksWP, which represents a scraping of Wikipedia information on Star Trek books, stBooks contains several different fields, including more useful fields for analysts such as the number of words and chapters in a book.

stBooks
#> # A tibble: 743 x 11
#>    title  creator date  publisher identifier series subseries nchap  nword
#>    <chr>  <chr>   <chr> <chr>     <chr>      <chr>  <chr>     <int>  <int>
#>  1 The M~ Gene R~ 1979~ Simon an~ 978074341~ The O~ TOS 01 -~    30  54522
#>  2 Dread~ Diane ~ 1986~ Pocket B~ 978074341~ The O~ TOS 29 -~    15  58867
#>  3 Battl~ Diane ~ 1986~ Simon an~ 978074341~ The O~ TOS 31 -~    13  80159
#>  4 The T~ Barbar~ 1988~ Simon an~ 978074341~ The O~ TOS 41 -~    13  71465
#>  5 Home ~ Dana K~ 1990~ Simon an~ 978074342~ The O~ TOS 52 -~    52  68778
#>  6 Ghost~ Barbar~ 1991~ Simon an~ 0743420047 The O~ TOS 53 -~    21  80103
#>  7 First~ Diane ~ 1995~ Pocket B~ 978074342~ The O~ TOS 75 -~    45 110913
#>  8 The A~ Dayton~ 2002~ Pocket B~ 978074346~ The O~ TOS - Th~     1   7439
#>  9 World~ Judith~ 2003~ Pocket B~ 0743488148 The O~ TOS - Wo~    64 207246
#> 10 Duty,~ Noveli~ 2004~ Pocket B~ 978074349~ The O~ TOS - Du~    42 196779
#> # ... with 733 more rows, and 2 more variables: nchar <int>,
#> #   dedication <chr>
…
