Star Trek API (STAPI) • rtrek
…
Keep in mind that STAPI focuses more on providing real world data associated with Star Trek (e.g., when did episode X first air on television?) than on fictional universe data, but it contains both and the database holdings will grow with time.

To use the words of the developers, the STAPI is

the first public Star Trek API, accessible via REST and SOAP. It’s an open source project, that anyone can contribute to.

The API is highly functional. Please do not abuse the API with constant requests. Their pages suggest no more than one request per second, but I would suggest ten seconds between successive requests. The default anti-DDOS measures in rtrek limit requests to one per second. You can update this global rtrek setting with options, e.g. options(rtrek_antidos = 10) for a minimum ten second wait between API calls to be an even better neighbor. rtrek will not permit faster requests. If set below one second, the option is ignored and a warning thrown when making any API call.

STAPI entities

There a many fields, or entities, available in the API. The available IDs can be found in this table:

stapiEntities
#> # A tibble: 40 x 4
#>    id                 class   ncol colnames    
#>    <chr>              <chr>  <int> <named list>
#>  1 animal             tbl_df     7 <chr [7]>   
#>  2 astronomicalObject tbl_df     5 <chr [5]>   
#>  3 book               tbl_df    24 <chr [24]>  
#>  4 bookCollection     tbl_df    10 <chr [10]>  
#>  5 bookSeries         tbl_df    11 <chr [11]>  
#>  6 character          tbl_df    24 <chr [24]>  
#>  7 comicCollection    tbl_df    14 <chr [14]>  
#>  8 comics             tbl_df    15 <chr [15]>  
#>  9 comicSeries        tbl_df    15 <chr [15]>  
#> 10 comicStrip         tbl_df    12 <chr [12]>  
#> # ... with 30 more rows
…
To determine how many pages of results exist for a given search, set page_count = TRUE. The impact on the API will be equivalent to only searching a single page of results. One page contains metadata including the total number of pages. Nothing is returned in this “safe mode”, but the total number of search results available is printed to the console.

Searching movies only returns one page of results. However, there are a lot of characters in the Star Trek universe. Check the total pages available for character search.

stapi("character", page_count = TRUE)
#> Total pages to retrieve all results: 66

And that is with 100 results per page!

The default page = 1 only returns the first page. page can be a vector, e.g. page = 1:62. Results from multi-page searches are automatically combined into a single, constant data frame output. For the second call to stapi, return only page two here, which contains the character, Q (currently, pending future character database updates that may shift the indexing). In case that does change and Q is not always near the top of page two of the search results, the example further below hard-codes his unique/universal ID.

library(dplyr)
stapi("character", page = 1) %>% select(uid, name)
#> # A tibble: 100 x 2
#>    uid            name            
#>    <chr>          <chr>           
#>  1 CHMA0000021696 Pechetti        
#>  2 CHMA0000028502 Pomet           
#>  3 CHMA0000134966 Eddie Newsom    
#>  4 CHMA0000101321 T. Virts        
#>  5 CHMA0000053158 Annabelle series
#>  6 CHMA0000008975 Torias Dax      
#>  7 CHMA0000232471 T. Peel         
#>  8 CHMA0000087568 Grathon Tolar   
#>  9 CHMA0000190805 C. Russell      
#> 10 CHMA0000069617 Mike Vejar      
#> # ... with 90 more rows
…
