Memory Beta timeline — mb_timeline • rtrek
…
Also, like other functions that work with Memory Alpha and Memory Beta data,
mb_timeline wraps around internal functions that are sensibly memoized.
This means that if you make the same call twice in your R session, you won't
have to wait at all, because the result is cached in memory. The call will
appear to run instantaneously the second time around, but that's because
nothing is happening other than returning the cached result from the initial
call.

    Examples

mb_timeline(2360)
#> 2360 
#> $events
#> # A tibble: 21 × 2
#>    period details                                                               
#>    <chr>  <chr>                                                                 
#>  1 2360   Events                                                                
#>  2 2360   Quark opens a bar on Terok Nor.                                       
#>  3 2360   Politics                                                              
#>  4 2360   Conflicts                                                             
#>  5 2360   Kalisi Reyar designs and completes a grid system that watches out for…
#>  6 2360   Federation politics                                                   
#>  7 2360   Pahkwa-thanh is admitted into the Federation. [citation needed]       
#>  8 2360   Cardassian politics                                                   
#>  9 2360   Miras Vara has taken the leadership of the Oralian Way as Astraea; in…
#> 10 2360   Natima Lang and Gaten Russol join the cardassian dissident movement   
#> # ℹ 11 more rows
…
