Memory Alpha API — memory_alpha • rtrek
…
    Examples

memory_alpha("portals") # show available portals
#> # A tibble: 6 x 2
#>   id         url                       
#>   <chr>      <chr>                     
#> 1 alternate  Portal:Alternate_Reality  
#> 2 people     Portal:People             
#> 3 science    Portal:Science            
#> 4 series     Portal:TV_and_films       
#> 5 society    Portal:Society_and_Culture
#> 6 technology Portal:Technology         
memory_alpha("people") # show portal categories for People portal
#> # A tibble: 101 x 3
#>    id          url                  group     
#>    <chr>       <chr>                <chr>     
#>  1 Acamarians  Category:Acamarians  By species
#>  2 Akritirians Category:Akritirians By species
#>  3 Aldeans     Category:Aldeans     By species
#>  4 Andorians   Category:Andorians   By species
#>  5 Androids    Category:Androids    By species
#>  6 Aquans      Category:Aquans      By species
#>  7 Ardanans    Category:Ardanans    By species
#>  8 Augments    Category:Augments    By species
#>  9 Ba'ku       Category:Ba%27ku     By species
#> 10 Bajorans    Category:Bajorans    By species
#> # ... with 91 more rows
memory_alpha("people/Klingons") # show people in Klingons subcategory
#> # A tibble: 218 x 2
#>    Klingons                               url                                  
#>    <chr>                                  <chr>                                
#>  1 Category:Memory Alpha images (Klingon~ Category:Memory_Alpha_images_(Klingo~
#>  2 Amar (Klingon)                         Amar_(Klingon)                       
#>  3 Antaak                                 Antaak                               
#>  4 A'trom                                 A%27trom                             
#>  5 Atul                                   Atul                                 
#>  6 Category:Augments                      Category:Augments                    
#>  7 Azetbur                                Azetbur                              
#>  8 Ba'el                                  Ba%27el                              
#>  9 Ba'ktor                                Ba%27ktor                            
#> 10 Barak-Kadan                            Barak-Kadan                          
#> # ... with 208 more rows
…
