Retrieve Star Trek data from STAPI — stapi • rtrek
…
# \donttest{
library(dplyr)
#> 
#> Attaching package: 'dplyr'
#> The following objects are masked from 'package:stats':
#> 
#>     filter, lag
#> The following objects are masked from 'package:base':
#> 
#>     intersect, setdiff, setequal, union
stapi("character", page_count = TRUE) # check first
#> Total pages to retrieve all results: 76 
stapi("character", page = 2) |> select(1:2)
#> # A tibble: 100 × 2
#>    uid            name              
#>    <chr>          <chr>             
#>  1 CHMA0000051779 Alex Smutko       
#>  2 CHMA0000020014 Alexana Devos     
#>  3 CHMA0000039688 Alexander         
#>  4 CHMA0000206312 Alexander         
#>  5 CHMA0000213058 Alexander         
#>  6 CHMA0000189986 Alexander Courage 
#>  7 CHMA0000069404 Alexander Hamilton
#>  8 CHMA0000176430 Alexander Marcus  
#>  9 CHMA0000174627 Alexander Marcus  
#> 10 CHMA0000007635 Alexander Rozhenko
#> # ℹ 90 more rows
…
